<?xml version="1.0" encoding="utf-8"?>
<svg version="1.1" id="Layer_1" xmlns="http://www.w3.org/2000/svg" xmlns:xlink="http://www.w3.org/1999/xlink" x="0px" y="0px"
	 height="243" width="2400" viewBox="0 0 3008 243.4" style="enable-background:new 0 0 3008 243.4;" xml:space="preserve">
<path fill="#fff" d="M1511,191.4C880.8,191.4,325.7,115.4,0,0v243.4h3008V4.9C2680.6,117.5,2132.2,191.4,1511,191.4z"/>
</svg>
